{
  "data": [
    {
      "id": 2,
      "name": "Supreme",
      "description": "Traditional crust brushed with garlic butter and topped with tomato sauce, 100% real cheese, pepperoni, beef, sausage, red onions, green peppers and mushrooms.",
      "price_usd": 9,
      "image_url": "supreme_pizza.png",
      "created_at": null,
      "updated_at": null
    },
    {
      "id": 3,
      "name": "Meat Eater",
      "description": "Traditional crust brushed with garlic butter and topped with tomato sauce, 100% real cheese, pepperoni, ham, beef and sausage.",
      "price_usd": 7,
      "image_url": "meat_eater_pizza.png",
      "created_at": null,
      "updated_at": null
    },
    {
      "id": 4,
      "name": "Veggie",
      "description": "Traditional crust brushed with garlic butter and topped with tomato sauce, 100% real cheese, red onions, green peppers, mushrooms and black olives.",
      "price_usd": 5.5,
      "image_url": "pizza_veggie.png",
      "created_at": null,
      "updated_at": null
    },
    {
      "id": 5,
      "name": "Pepperoni",
      "description": "Traditional crust brushed with garlic butter and topped with tomato sauce, 100% real cheese and pepperoni.",
      "price_usd": 6,
      "image_url": "pepperoni_pizza.png",
      "created_at": null,
      "updated_at": null
    },
    {
      "id": 6,
      "name": "Alfredo",
      "description": "Traditional crust brushed with garlic butter and topped with creamy Alfredo sauce and 100% real cheese.",
      "price_usd": 5.5,
      "image_url": "pizza_alfredo.png",
      "created_at": null,
      "updated_at": null
    },
    {
      "id": 7,
      "name": "BBQ Pork",
      "description": "Traditional crust brushed with garlic butter and topped sweet and tangy honey BBQ sauce, 100% real cheese, and deliciously seasoned pulled pork.",
      "price_usd": 7.5,
      "image_url": "pizza_bbq_pork.png",
      "created_at": null,
      "updated_at": null
    },
    {
      "id": 8,
      "name": "Zesty Ham",
      "description": "Traditional crust brushed with garlic butter and topped with Zesty Parmesan Ranch sauce, 100% real cheese, 100% real cheddar and ham.",
      "price_usd": 9,
      "image_url": "pizza_zesty_ham.png",
      "created_at": null,
      "updated_at": null
    },
    {
      "id": 9,
      "name": "Cheese",
      "description": "Traditional crust brushed with garlic butter and topped with tomato sauce and 100% real cheese.",
      "price_usd": 4,
      "image_url": "pizza_cheese.png",
      "created_at": null,
      "updated_at": null
    }
  ]
}